{
	"info": {
		"_postman_id": "d755622f-b4cd-4ef6-9be7-3404066706a1",
		"name": "apiTestSample",
		"schema": "https://schema.getpostman.com/json/collection/v2.1.0/collection.json"
	},
	"item": [
		{
			"name": "POST_Operation",
			"item": [
				{
					"name": "signinAPIRequest",
					"event": [
						{
							"listen": "prerequest",
							"script": {
								"id": "3603affe-23e0-4f4c-a0a3-ec17294e4bf6",
								"exec": [
									"/*var myName=\"jatin\"",
									"pm.test(\"verify user content\", function() {",
									"    pm.expect(myName).to.eql(\"Jatin Sharma\");",
									"});",
									"*/",
									"//LOCAL VARIABLES:",
									"//How to CREATE:",
									"/*pm.variables.set(\"myName\", \"Priyanka\");",
									"pm.environment.set(\"viascriptcariable\", \"test\");",
									"console.log(pm.environment.get(\"myName\"))*/"
								],
								"type": "text/javascript"
							}
						},
						{
							"listen": "test",
							"script": {
								"id": "4e199c13-ab63-45ad-a062-80e7917aa734",
								"exec": [
									"var jsonData=pm.response.json();",
									"console.log(\"Printing the token value\", jsonData.data.token)",
									"",
									"//pm.variables.set(\"localToken\", jsonData.data.token); //Local Variable",
									"pm.globals.set(\"globalToken\", jsonData.data.token); //Global Variable",
									"//Global Variable",
									"//console.log(pm.variables.get(\"localToken\"));",
									"",
									"//Variation 1",
									"/*var localVariable=pm.variables.get(\"myName\");",
									"console.log(localVariable);",
									"//OR combine both above lines",
									"console.log(pm.variables.get(\"myName\"));",
									"pm.test(\"verify user content\", function() {",
									"    pm.expect(jsonData.data.user.id).to.eql(2);",
									"    pm.expect(jsonData.data.user.name).to.eql(\"Jatin Sharma\");",
									"})*/"
								],
								"type": "text/javascript"
							}
						}
					],
					"request": {
						"method": "POST",
						"header": [
							{
								"key": "Content-Type",
								"name": "Content-Type",
								"value": "application/json",
								"type": "text"
							},
							{
								"key": "",
								"value": "",
								"type": "text",
								"disabled": true
							}
						],
						"body": {
							"mode": "raw",
							"raw": "{\n\t\"email\" : \"jatinvsharma@gmail.com\",\n\t\"password\" : \"123123123\"\n}",
							"options": {
								"raw": {
									"language": "json"
								}
							}
						},
						"url": {
							"raw": "http://139.59.91.96:3000/user/signin",
							"protocol": "http",
							"host": [
								"139",
								"59",
								"91",
								"96"
							],
							"port": "3000",
							"path": [
								"user",
								"signin"
							]
						}
					},
					"response": []
				},
				{
					"name": "AddProductAPIRequest",
					"event": [
						{
							"listen": "prerequest",
							"script": {
								"id": "8c36514c-3c26-4d06-b173-7349404d3fea",
								"exec": [
									"//These are local Javascript variables",
									"var myName = \"Priyanka\"",
									"var myAge = 25",
									"var myGender = \"F\"",
									"var mySalary = 34000",
									"",
									"//Print",
									"console.log(\"Pre-request----\")",
									"console.log(myName)",
									"console.log(myAge)",
									"console.log(myGender)",
									"console.log(mySalary)"
								],
								"type": "text/javascript"
							}
						},
						{
							"listen": "test",
							"script": {
								"id": "ef9ff506-927d-4222-b1c5-293b2dd94b34",
								"exec": [
									"console.log(\"'Tests' is executing after the Request\");",
									"",
									"var jsonData= pm.response.json();",
									"console.log(jsonData);",
									"console.log(\"**********************\");",
									"console.log(jsonData.data.id);",
									"",
									"//Global",
									"pm.globals.set(\"prodID\", jsonData.data.id);"
								],
								"type": "text/javascript"
							}
						}
					],
					"request": {
						"method": "POST",
						"header": [
							{
								"key": "Content-Type",
								"value": "application/json",
								"type": "text"
							},
							{
								"key": "Authorization",
								"value": "{{globalToken}}",
								"type": "text"
							}
						],
						"body": {
							"mode": "raw",
							"raw": "{\n\t\"prod_name\" : \"PostmanTest2_PKM\",\n\t\"prod_desc\" : \"Automation Course\",\n\t\"prod_price\" : 5000\n}",
							"options": {
								"raw": {}
							}
						},
						"url": {
							"raw": "http://139.59.91.96:3000/api/v1/products",
							"protocol": "http",
							"host": [
								"139",
								"59",
								"91",
								"96"
							],
							"port": "3000",
							"path": [
								"api",
								"v1",
								"products"
							]
						}
					},
					"response": []
				}
			],
			"protocolProfileBehavior": {}
		},
		{
			"name": "GET_Operation",
			"item": [
				{
					"name": "SearchProductAPIRequest",
					"request": {
						"method": "GET",
						"header": [
							{
								"key": "Authorization",
								"value": "{{globalToken}}",
								"type": "text"
							}
						],
						"url": {
							"raw": "http://139.59.91.96:3000/api/v1/products/search/{{prodID}}",
							"protocol": "http",
							"host": [
								"139",
								"59",
								"91",
								"96"
							],
							"port": "3000",
							"path": [
								"api",
								"v1",
								"products",
								"search",
								"{{prodID}}"
							]
						}
					},
					"response": []
				}
			],
			"protocolProfileBehavior": {}
		},
		{
			"name": "PUT_Operation",
			"item": [
				{
					"name": "UpdateProductAPIRequest",
					"request": {
						"method": "PUT",
						"header": [
							{
								"key": "Content-Type",
								"value": "application/json",
								"type": "text"
							},
							{
								"key": "Authorization",
								"value": "{{globalToken}}",
								"type": "text"
							}
						],
						"body": {
							"mode": "raw",
							"raw": "{\n\t\"prod_name\" : \"AutoCourse_Feb_PKM\",\n\t\"prod_desc\" : \"Automation Course - updated\",\n\t\"prod_price\" : 17203\n}",
							"options": {
								"raw": {}
							}
						},
						"url": {
							"raw": "http://139.59.91.96:3000/api/v1/products/{{prodID}}",
							"protocol": "http",
							"host": [
								"139",
								"59",
								"91",
								"96"
							],
							"port": "3000",
							"path": [
								"api",
								"v1",
								"products",
								"{{prodID}}"
							]
						}
					},
					"response": []
				}
			],
			"protocolProfileBehavior": {}
		},
		{
			"name": "DELETE_Operation",
			"item": [
				{
					"name": "DeleteProductByIDAPI",
					"request": {
						"method": "DELETE",
						"header": [
							{
								"key": "Authorization",
								"value": "{{globalToken}}",
								"type": "text"
							}
						],
						"url": {
							"raw": "http://139.59.91.96:3000/api/v1/products/{{prodID}}",
							"protocol": "http",
							"host": [
								"139",
								"59",
								"91",
								"96"
							],
							"port": "3000",
							"path": [
								"api",
								"v1",
								"products",
								"{{prodID}}"
							]
						}
					},
					"response": []
				}
			],
			"protocolProfileBehavior": {}
		},
		{
			"name": "googleGET",
			"request": {
				"method": "GET",
				"header": [],
				"url": {
					"raw": "https://www.google.com?q=facebook",
					"protocol": "https",
					"host": [
						"www",
						"google",
						"com"
					],
					"query": [
						{
							"key": "q",
							"value": "facebook"
						}
					]
				}
			},
			"response": []
		}
	],
	"protocolProfileBehavior": {}
}